…
做股市分析的第一步就是要取得股價資料，`tidyquant`套件的`tq_get()`函數整合`quantmod`套件的`getSymbols()`函數。透過`tq_get()`函數可以一次下載多檔股票，並且以`tibble`格式儲存資料，讓後續的資料處理更加方便。此處示範如何下載2017/06/01至2018/05/31，鴻海(2317.TW)、台積電(2330.TW)及中華電信(2412.TW)及臺灣加權指數(^TWII)的歷史價格資料，資料下載來源為[Yahoo Finance](https://finance.yahoo.com/)。

``` r
# 載入套件
library(tidyquant)

# 下載資料
stockData <- c("^TWII", "2330.TW", "2317.TW", "2412.TW") %>%
  tq_get(get = "stock.price", from = "2017-06-01", to = "2018-05-31")

# 觀看資料
stockData
```

    ## # A tibble: 988 x 8
    ##    symbol       date     open     high      low    close  volume adjusted
    ##     <chr>     <date>    <dbl>    <dbl>    <dbl>    <dbl>   <dbl>    <dbl>
    ##  1  ^TWII 2017-06-01 10064.44 10100.37 10059.93 10087.42 1923600 10087.42
    ##  2  ^TWII 2017-06-02 10117.76 10152.53 10117.06 10152.53 2037600 10152.53
    ##  3  ^TWII 2017-06-03       NA       NA       NA       NA      NA       NA
    ##  4  ^TWII 2017-06-05 10164.89 10226.84 10164.89 10226.84 2141900 10226.84
    ##  5  ^TWII 2017-06-06 10213.17 10221.64 10190.39 10206.18 2016200 10206.18
    ##  6  ^TWII 2017-06-07 10216.14 10242.39 10183.15 10209.99 2172700 10209.99
    ##  7  ^TWII 2017-06-08 10215.93 10235.70 10211.00 10225.78 1703500 10225.78
    ##  8  ^TWII 2017-06-09 10238.55 10268.37 10198.80 10199.65 2139100 10199.65
    ##  9  ^TWII 2017-06-12 10137.04 10158.64 10109.96 10109.96 1746300 10109.96
    ## 10  ^TWII 2017-06-13 10109.70 10146.67 10109.70 10128.15 1586300 10128.15
    ## # ... with 978 more rows
…
# 整理資料欄位(依序為股票代碼、名稱、日期、開盤價、最高價、最低價、收盤價、成交量及成交金額)
colnames(stockData) <- c("code", "name", "date", "open", "high", "low", "close", "volume", "tradeValue")

# 將股票代碼及名稱空白格刪除
stockData <- stockData %>%
  mutate(code = gsub("\\s+","", code),
         name = gsub("\\s+","", name))

# 觀看資料
stockData
```

    ## # A tibble: 996 x 9
    ##     code     name     date     open     high      low    close  volume
    ##    <chr>    <chr>    <int>    <dbl>    <dbl>    <dbl>    <dbl>   <int>
    ##  1  2317     鴻海 20170601    99.57   100.53    99.09   100.53   27441
    ##  2  2330   台積電 20170601   198.39   200.32   197.90   200.32   29623
    ##  3  2412   中華電 20170601   103.13   103.60   102.65   103.13   10351
    ##  4 Y9999 加權指數 20170601 10064.44 10100.37 10059.93 10087.42 3935374
    ##  5  2317     鴻海 20170602   101.01   101.49   100.53   101.49   38194
    ##  6  2330   台積電 20170602   201.77   202.26   200.81   202.26   23265
    ##  7  2412   中華電 20170602   103.13   103.60   102.17   103.13    7341
    ##  8 Y9999 加權指數 20170602 10117.76 10152.53 10117.06 10152.53 4262071
    ##  9  2317     鴻海 20170603   101.01   101.49   100.53   101.01    9968
    ## 10  2330   台積電 20170603   202.26   202.26   201.29   202.26    1535
    ## # ... with 986 more rows, and 1 more variables: tradeValue <int>
…
``` r
# 將8碼數字日期格式轉為日期格式
DateConvert <- function(date){
  date <- as.Date(as.character(date), "%Y%m%d")
  return(date)
}

stockData <- stockData %>% mutate(date = DateConvert(date))

# 觀看資料
stockData
```

    ## # A tibble: 996 x 9
    ##     code     name       date     open     high      low    close  volume
    ##    <chr>    <chr>     <date>    <dbl>    <dbl>    <dbl>    <dbl>   <int>
    ##  1  2317     鴻海 2017-06-01    99.57   100.53    99.09   100.53   27441
    ##  2  2330   台積電 2017-06-01   198.39   200.32   197.90   200.32   29623
    ##  3  2412   中華電 2017-06-01   103.13   103.60   102.65   103.13   10351
    ##  4 Y9999 加權指數 2017-06-01 10064.44 10100.37 10059.93 10087.42 3935374
    ##  5  2317     鴻海 2017-06-02   101.01   101.49   100.53   101.49   38194
    ##  6  2330   台積電 2017-06-02   201.77   202.26   200.81   202.26   23265
    ##  7  2412   中華電 2017-06-02   103.13   103.60   102.17   103.13    7341
    ##  8 Y9999 加權指數 2017-06-02 10117.76 10152.53 10117.06 10152.53 4262071
    ##  9  2317     鴻海 2017-06-03   101.01   101.49   100.53   101.01    9968
    ## 10  2330   台積電 2017-06-03   202.26   202.26   201.29   202.26    1535
    ## # ... with 986 more rows, and 1 more variables: tradeValue <int>
…
# 觀看資料
stockData %>% 
  select(code, date, ma5) %>% 
  arrange(code, date)
```

    ## # A tibble: 996 x 3
    ## # Groups:   code [4]
    ##     code       date     ma5
    ##    <chr>     <date>   <dbl>
    ##  1  2317 2017-06-01      NA
    ##  2  2317 2017-06-02      NA
    ##  3  2317 2017-06-03      NA
    ##  4  2317 2017-06-05      NA
    ##  5  2317 2017-06-06 101.106
    ##  6  2317 2017-06-07 101.202
    ##  7  2317 2017-06-08 101.106
    ##  8  2317 2017-06-09 101.106
    ##  9  2317 2017-06-12 100.434
    ## 10  2317 2017-06-13  99.858
    ## # ... with 986 more rows
…
  # 計算20日簡單移動平均線參數
  tq_mutate(select = c(close),
            mutate_fun = SMA,
            n = 20) %>%
  rename(ma20 = SMA)

# 觀看資料
stockData %>% 
  select(code, date, ma10:ma20) %>% 
  arrange(code, date)
```

    ## # A tibble: 996 x 4
    ## # Groups:   code [4]
    ##     code       date    ma10  ma20
    ##    <chr>     <date>   <dbl> <dbl>
    ##  1  2317 2017-06-01      NA    NA
    ##  2  2317 2017-06-02      NA    NA
    ##  3  2317 2017-06-03      NA    NA
    ##  4  2317 2017-06-05      NA    NA
    ##  5  2317 2017-06-06      NA    NA
    ##  6  2317 2017-06-07      NA    NA
    ##  7  2317 2017-06-08      NA    NA
    ##  8  2317 2017-06-09      NA    NA
    ##  9  2317 2017-06-12      NA    NA
    ## 10  2317 2017-06-13 100.482    NA
    ## # ... with 986 more rows
…
  # 計算隨機指標
  tq_mutate(select = c(high, low, close),   
            mutate_fun = stoch, 
            nFastK = 14, 
            nFastD = 3, 
            nSlowD = 3)

# 觀看資料
stockData %>% 
  select(code, date, fastK:stoch) %>% 
  arrange(code, date)
```

    ## # A tibble: 996 x 5
    ## # Groups:   code [4]
    ##     code       date fastK fastD stoch
    ##    <chr>     <date> <dbl> <dbl> <dbl>
    ##  1  2317 2017-06-01    NA    NA    NA
    ##  2  2317 2017-06-02    NA    NA    NA
    ##  3  2317 2017-06-03    NA    NA    NA
    ##  4  2317 2017-06-05    NA    NA    NA
    ##  5  2317 2017-06-06    NA    NA    NA
    ##  6  2317 2017-06-07    NA    NA    NA
    ##  7  2317 2017-06-08    NA    NA    NA
    ##  8  2317 2017-06-09    NA    NA    NA
    ##  9  2317 2017-06-12    NA    NA    NA
    ## 10  2317 2017-06-13    NA    NA    NA
    ## # ... with 986 more rows
…
  # 計算MACD指標
  tq_mutate(select = close,                
            mutate_fun = MACD, 
            nFast = 12, 
            nSlow = 26, 
            nSig  = 9)               

# 觀看資料
stockData %>% 
  select(code, date, macd:signal) %>% 
  arrange(code, date)
```

    ## # A tibble: 996 x 4
    ## # Groups:   code [4]
    ##     code       date  macd signal
    ##    <chr>     <date> <dbl>  <dbl>
    ##  1  2317 2017-06-01    NA     NA
    ##  2  2317 2017-06-02    NA     NA
    ##  3  2317 2017-06-03    NA     NA
    ##  4  2317 2017-06-05    NA     NA
    ##  5  2317 2017-06-06    NA     NA
    ##  6  2317 2017-06-07    NA     NA
    ##  7  2317 2017-06-08    NA     NA
    ##  8  2317 2017-06-09    NA     NA
    ##  9  2317 2017-06-12    NA     NA
    ## 10  2317 2017-06-13    NA     NA
    ## # ... with 986 more rows
…
# 整理各資產報酬率並且併入各交易日對應的市場報酬率
stockRet <- stockRet %>%
  select(code:date, ret) %>%
  filter(code != "Y9999") %>%
  left_join(mktRet, by = c("date" = "date"))
```

整理完後的資料，每個資產在每個交易日都有日報酬率和當日的市場報酬率，如下所示：

``` r
stockRet
```

    ## # A tibble: 744 x 5
    ##     code  name       date          ret        mktRet
    ##    <chr> <chr>     <date>        <dbl>         <dbl>
    ##  1  2317  鴻海 2017-06-02  0.009549388  0.0064545741
    ##  2  2317  鴻海 2017-06-03 -0.004729530  0.0005535566
    ##  3  2317  鴻海 2017-06-05  0.004752005  0.0067620581
    ##  4  2317  鴻海 2017-06-06 -0.004729530 -0.0020201744
    ##  5  2317  鴻海 2017-06-07  0.000000000  0.0003733032
    ##  6  2317  鴻海 2017-06-08  0.000000000  0.0015465245
    ##  7  2317  鴻海 2017-06-09  0.000000000 -0.0025553063
    ##  8  2317  鴻海 2017-06-12 -0.028512029 -0.0087934390
    ##  9  2317  鴻海 2017-06-13  0.000000000  0.0017992158
    ## 10  2317  鴻海 2017-06-14  0.000000000 -0.0054985363
    ## # ... with 734 more rows
…
``` r
# 轉換成月頻資料
stockMonthRet <- stockData %>%
  group_by(code) %>%
  tq_transmute(select = close,
               mutate_fun = periodReturn,
               col_rename = "monthRet",
               period = "monthly")

# 觀看資料
stockMonthRet
```

    ## # A tibble: 48 x 3
    ## # Groups:   code [4]
    ##     code       date     monthRet
    ##    <chr>     <date>        <dbl>
    ##  1  2317 2017-06-30  0.119665771
    ##  2  2317 2017-07-31  0.043887704
    ##  3  2317 2017-08-31  0.000000000
    ##  4  2317 2017-09-30 -0.089361702
    ##  5  2317 2017-10-31  0.046728972
    ##  6  2317 2017-11-30 -0.107142857
    ##  7  2317 2017-12-29 -0.048000000
    ##  8  2317 2018-01-31 -0.031512605
    ##  9  2317 2018-02-27 -0.044468547
    ## 10  2317 2018-03-31  0.004540295
    ## # ... with 38 more rows
…
