…
              # 重新編排欄位順序
              select(c(date,open:volume)) %>%
  
              # 將成交量為0的交易日刪除
              filter((volume>0)|(!is.na(volume)))                                
```

整理好的股價資料內容如下所示：

``` r
stockData 
```

    ## # A tibble: 2,879 x 6
    ##          date     open     high      low    close   volume
    ##        <date>    <dbl>    <dbl>    <dbl>    <dbl>    <dbl>
    ##  1 2007-01-03 231.4944 236.7899 229.0652 232.2842 15513200
    ##  2 2007-01-04 232.9847 240.4114 232.6618 240.0686 15877700
    ##  3 2007-01-05 239.6910 242.1749 237.5102 242.0209 13833500
    ##  4 2007-01-08 242.2693 243.3522 239.5420 240.2276  9570600
    ##  5 2007-01-09 241.1565 242.5475 239.0452 241.1814 10832700
    ##  6 2007-01-10 240.6498 245.1803 239.4625 243.1486 12014600
    ##  7 2007-01-11 246.9935 249.2538 246.4868 248.2454 14510100
    ##  8 2007-01-12 249.3731 250.8683 248.3845 250.8683  9005500
    ##  9 2007-01-16 252.1351 254.8425 250.0238 250.5107 15236200
    ## 10 2007-01-17 250.0685 252.2444 245.5927 247.0333 13485200
    ## # ... with 2,869 more rows
…
                  # t-1日的收盤價>t-1日的20日移動平均線
                  lagClose1>MA20) %>%
  
                # 紀錄收盤價跌破20日移動平均線的發生日及當日收盤價，並重新命名欄位
                select(outDate=date, sellPrice=close)  
```

透過上述程式判斷，即可找出GOOGLE股票跌破20日移動平均線的位置。從結果中發現，GOOGLE股票在2007年01月03號到2017年11月14號這段期間，發生過161次收盤價跌破20日移動平均線的情況。

``` r
outSiteTable
```

    ## # A tibble: 159 x 2
    ##       outDate sellPrice
    ##        <date>     <dbl>
    ##  1 2007-02-01  239.3185
    ##  2 2007-02-23  233.7894
    ##  3 2007-04-30  234.1670
    ##  4 2007-05-04  234.0378
    ##  5 2007-05-17  233.9583
    ##  6 2007-05-18  233.6404
    ##  7 2007-07-20  258.3795
    ##  8 2007-08-09  255.7019
    ##  9 2007-08-28  251.5638
    ## 10 2007-11-09  329.8397
    ## # ... with 149 more rows
…
